sampleFile;referenceFile;sample;midi
../samples/sample_haydn_35_short.wav;../samples/midi_haydn_35_short.wav;1;0.1
../samples/sample_haydn_35_short.wav;../samples/midi_haydn_35_short.wav;2.8;1.9
../samples/sample_haydn_35_short.wav;../samples/midi_haydn_35_short.wav;8.245;7.7
../samples/sample_haydn_35_short.wav;../samples/midi_haydn_35_short.wav;17.1;16.9
../samples/sample_haydn_35_short.wav;../samples/midi_haydn_35_short.wav;19.1;19.1
../samples/sample_haydn_35_short.wav;../samples/midi_haydn_35_short.wav;22.065;22.235
../samples/sample_haydn_35_short.wav;../samples/midi_haydn_35_short.wav;26.04;26.08
../samples/sample_haydn_35_short.wav;../samples/midi_haydn_35_short.wav;29.04;29.07
